INDEX VERSION 1.130+C:\fsd\fsd62\module4\SpringBoot\workspace1\.metadata\.plugins\org.eclipse.jdt.core
1705772164.index
3559423655.index
973652023.index
2287467648.index
4122453309.index
246969447.index
173680289.index
215506646.index
3127728267.index
1246646113.index
1864551027.index
4227047701.index
3397044838.index
3433509804.index
3170439463.index
1895768659.index
20834573.index
4285341420.index
1010025081.index
324093397.index
756892486.index
2385269121.index
1984146098.index
3683658697.index
2354080905.index
1165219157.index
1022169703.index
888930435.index
785372888.index
2445360421.index
2499951800.index
557345516.index
3445245366.index
803052708.index
3544463233.index
3247599213.index
4277880033.index
3538896595.index
1703370312.index
2524452223.index
783928084.index
2757150817.index
1642536134.index
315104255.index
2838328315.index
4069559371.index
1124295326.index
655400213.index
3621867615.index
3601692167.index
1186846829.index
3657899506.index
3294407453.index
2831182723.index
3823773141.index
2286261253.index
2134493170.index
2481424329.index
865312900.index
2022681836.index
1129067847.index
1089732544.index
300795519.index
633092090.index
4027586376.index
1388316738.index
4187518375.index
1402648614.index
1828026965.index
1466175927.index
826654685.index
2685935595.index
2814522370.index
1879511184.index
2687323615.index
3626021666.index
795189116.index
2883731180.index
561600363.index
