127.0.0.1 - - [29/Mar/2024:22:43:18 +0530] "GET / HTTP/1.1" 404 752
0:0:0:0:0:0:0:1 - - [29/Mar/2024:22:43:19 +0530] "GET /EmpWebApp/Login.html HTTP/1.1" 200 322
127.0.0.1 - - [29/Mar/2024:22:44:03 +0530] "GET / HTTP/1.1" 404 752
0:0:0:0:0:0:0:1 - - [29/Mar/2024:22:44:03 +0530] "GET /EmpWebApp/Login.html HTTP/1.1" 200 335
0:0:0:0:0:0:0:1 - - [29/Mar/2024:22:44:33 +0530] "GET /EmpWebApp/Login.html HTTP/1.1" 200 354
0:0:0:0:0:0:0:1 - - [29/Mar/2024:22:45:08 +0530] "GET /EmpWebApp/Login.html HTTP/1.1" 200 363
127.0.0.1 - - [29/Mar/2024:22:47:18 +0530] "GET / HTTP/1.1" 404 752
0:0:0:0:0:0:0:1 - - [29/Mar/2024:22:47:18 +0530] "GET /EmpWebApp/Login.html HTTP/1.1" 304 -
0:0:0:0:0:0:0:1 - - [29/Mar/2024:22:47:44 +0530] "GET /EmpWebApp/Login.html HTTP/1.1" 200 394
0:0:0:0:0:0:0:1 - - [29/Mar/2024:22:47:46 +0530] "GET /EmpWebApp/Login?userEmailId=&userPassword= HTTP/1.1" 200 -
127.0.0.1 - - [29/Mar/2024:22:48:59 +0530] "GET / HTTP/1.1" 404 752
0:0:0:0:0:0:0:1 - - [29/Mar/2024:22:48:59 +0530] "GET /EmpWebApp/Login.html HTTP/1.1" 304 -
0:0:0:0:0:0:0:1 - - [29/Mar/2024:22:49:08 +0530] "GET /EmpWebApp/Login?userEmailId=hr@gmail.com&userPassword=hr HTTP/1.1" 200 30
127.0.0.1 - - [29/Mar/2024:22:50:14 +0530] "GET / HTTP/1.1" 404 752
0:0:0:0:0:0:0:1 - - [29/Mar/2024:22:50:14 +0530] "GET /EmpWebApp/Login.html HTTP/1.1" 304 -
0:0:0:0:0:0:0:1 - - [29/Mar/2024:22:50:25 +0530] "GET /EmpWebApp/Login?userEmailId=hr@gmail.com&userPassword=hr HTTP/1.1" 200 38
0:0:0:0:0:0:0:1 - - [29/Mar/2024:22:50:47 +0530] "GET /EmpWebApp/Login.html HTTP/1.1" 200 408
0:0:0:0:0:0:0:1 - - [29/Mar/2024:22:50:49 +0530] "GET /EmpWebApp/Login?userEmailId=&userPassword= HTTP/1.1" 200 30
0:0:0:0:0:0:0:1 - - [29/Mar/2024:22:51:25 +0530] "GET /EmpWebApp/Login.html HTTP/1.1" 304 -
0:0:0:0:0:0:0:1 - - [29/Mar/2024:22:51:38 +0530] "GET /EmpWebApp/Login?userEmailId=hr@gmail.com&userPassword=hr HTTP/1.1" 200 38
127.0.0.1 - - [29/Mar/2024:22:52:04 +0530] "GET / HTTP/1.1" 404 752
0:0:0:0:0:0:0:1 - - [29/Mar/2024:22:52:04 +0530] "GET /EmpWebApp/Login.html HTTP/1.1" 304 -
0:0:0:0:0:0:0:1 - - [29/Mar/2024:22:52:12 +0530] "GET /EmpWebApp/Login?userEmailId=hr@gmail.com&userPassword=hr HTTP/1.1" 200 36
