127.0.0.1 - - [28/Mar/2024:11:18:31 +0530] "GET / HTTP/1.1" 404 752
0:0:0:0:0:0:0:1 - - [28/Mar/2024:11:18:32 +0530] "GET /servletDemo1/Hi.html HTTP/1.1" 200 137
127.0.0.1 - - [28/Mar/2024:11:20:28 +0530] "GET / HTTP/1.1" 404 752
0:0:0:0:0:0:0:1 - - [28/Mar/2024:11:20:29 +0530] "GET /servletDemo1/Hi.html HTTP/1.1" 304 -
127.0.0.1 - - [28/Mar/2024:11:51:14 +0530] "GET / HTTP/1.1" 404 752
0:0:0:0:0:0:0:1 - - [28/Mar/2024:11:51:15 +0530] "GET /servletDemo1/Hi.html HTTP/1.1" 200 147
0:0:0:0:0:0:0:1 - - [28/Mar/2024:11:51:35 +0530] "GET /servletDemo1/Hi.html HTTP/1.1" 200 164
0:0:0:0:0:0:0:1 - - [28/Mar/2024:11:51:47 +0530] "GET /servletDemo1/HiServlet HTTP/1.1" 404 778
127.0.0.1 - - [28/Mar/2024:12:00:14 +0530] "GET / HTTP/1.1" 404 752
0:0:0:0:0:0:0:1 - - [28/Mar/2024:12:00:14 +0530] "GET /servletDemo1/HiServlet HTTP/1.1" 200 -
0:0:0:0:0:0:0:1 - - [28/Mar/2024:12:00:22 +0530] "GET /servletDemo1/Hi.html HTTP/1.1" 304 -
0:0:0:0:0:0:0:1 - - [28/Mar/2024:12:00:24 +0530] "GET /servletDemo1/HiServlet HTTP/1.1" 200 -
127.0.0.1 - - [28/Mar/2024:12:04:26 +0530] "GET / HTTP/1.1" 404 752
0:0:0:0:0:0:0:1 - - [28/Mar/2024:12:04:27 +0530] "GET /servletDemo1/Hi.html HTTP/1.1" 304 -
0:0:0:0:0:0:0:1 - - [28/Mar/2024:12:04:29 +0530] "GET /servletDemo1/HiServlet HTTP/1.1" 200 -
0:0:0:0:0:0:0:1 - - [28/Mar/2024:12:08:07 +0530] "GET /servletDemo1/HiServlet HTTP/1.1" 200 -
127.0.0.1 - - [28/Mar/2024:12:08:33 +0530] "GET / HTTP/1.1" 404 752
0:0:0:0:0:0:0:1 - - [28/Mar/2024:12:08:33 +0530] "GET /servletDemo1/HiServlet HTTP/1.1" 200 -
0:0:0:0:0:0:0:1 - - [28/Mar/2024:12:08:58 +0530] "GET /servletDemo1/Hi.html HTTP/1.1" 304 -
0:0:0:0:0:0:0:1 - - [28/Mar/2024:12:09:24 +0530] "GET /servletDemo1/HiServlet HTTP/1.1" 200 -
0:0:0:0:0:0:0:1 - - [28/Mar/2024:12:09:42 +0530] "GET /servletDemo1/HiServlet HTTP/1.1" 200 -
127.0.0.1 - - [28/Mar/2024:12:14:14 +0530] "GET / HTTP/1.1" 404 752
0:0:0:0:0:0:0:1 - - [28/Mar/2024:12:14:14 +0530] "GET /servletDemo1/Hi.html HTTP/1.1" 200 215
0:0:0:0:0:0:0:1 - - [28/Mar/2024:12:14:16 +0530] "GET /servletDemo1/HelloServlet HTTP/1.1" 404 781
0:0:0:0:0:0:0:1 - - [28/Mar/2024:12:14:35 +0530] "GET /servletDemo1/Hi.html HTTP/1.1" 200 215
0:0:0:0:0:0:0:1 - - [28/Mar/2024:12:14:37 +0530] "GET /servletDemo1/helloServlet HTTP/1.1" 200 -
0:0:0:0:0:0:0:1 - - [28/Mar/2024:12:15:52 +0530] "GET /servletDemo1/Hi.html HTTP/1.1" 304 -
0:0:0:0:0:0:0:1 - - [28/Mar/2024:12:15:54 +0530] "GET /servletDemo1/HiServlet HTTP/1.1" 200 -
127.0.0.1 - - [28/Mar/2024:12:23:13 +0530] "GET / HTTP/1.1" 404 752
0:0:0:0:0:0:0:1 - - [28/Mar/2024:12:23:13 +0530] "GET /servletDemo1/Hi.html HTTP/1.1" 304 -
0:0:0:0:0:0:0:1 - - [28/Mar/2024:12:23:15 +0530] "GET /servletDemo1/HiServlet HTTP/1.1" 200 -
0:0:0:0:0:0:0:1 - - [28/Mar/2024:12:23:23 +0530] "GET /servletDemo1/HiServlet HTTP/1.1" 200 -
0:0:0:0:0:0:0:1 - - [28/Mar/2024:12:23:28 +0530] "GET /servletDemo1/HiServlet HTTP/1.1" 200 -
0:0:0:0:0:0:0:1 - - [28/Mar/2024:12:24:05 +0530] "GET /servletDemo1/helloServlet HTTP/1.1" 200 -
0:0:0:0:0:0:0:1 - - [28/Mar/2024:12:24:13 +0530] "GET /servletDemo1/HiServlet HTTP/1.1" 200 -
0:0:0:0:0:0:0:1 - - [28/Mar/2024:12:24:22 +0530] "GET /servletDemo1/helloServlet HTTP/1.1" 200 -
0:0:0:0:0:0:0:1 - - [28/Mar/2024:12:24:26 +0530] "GET /servletDemo1/helloServlet HTTP/1.1" 200 -
127.0.0.1 - - [28/Mar/2024:12:25:20 +0530] "GET / HTTP/1.1" 404 752
0:0:0:0:0:0:0:1 - - [28/Mar/2024:12:25:21 +0530] "GET /servletDemo1/Hi.html HTTP/1.1" 304 -
0:0:0:0:0:0:0:1 - - [28/Mar/2024:12:25:23 +0530] "GET /servletDemo1/HiServlet HTTP/1.1" 200 -
0:0:0:0:0:0:0:1 - - [28/Mar/2024:12:25:29 +0530] "GET /servletDemo1/HiServlet HTTP/1.1" 200 -
0:0:0:0:0:0:0:1 - - [28/Mar/2024:12:25:33 +0530] "GET /servletDemo1/helloServlet HTTP/1.1" 200 -
0:0:0:0:0:0:0:1 - - [28/Mar/2024:12:25:36 +0530] "GET /servletDemo1/helloServlet HTTP/1.1" 200 -
